DELAY,ciphertext
432ns,279FB74A7572135E8F9B8EF6D1EEE003
432ns,279FB74A7572135E8F9B8EF6D1EEE003
432ns,279FB74A7572135E8F9B8EF6D1EEE003
432ns,279FB74A7572135E8F9B8EF6D1EEE003
432ns,279FB74A7572135E8F9B8EF6D1EEE003
436ns,279FB74A7572135E8F9B8EF6D1EEE003
436ns,279FB74A7572135E8F9B8EF6D1EEE003
436ns,279FB74A7572135E8F9B8EF6D1EEE003
436ns,279FB74A7572135E8F9B8EF6D1EEE003
436ns,279FB74A7572135E8F9B8EF6D1EEE003
440ns,279FB74A7572135E8F9B8EF6D1EEE003
440ns,279FB74A7572135E8F9B8EF6D1EEE003
440ns,279FB74A7572135E8F9B8EF6D1EEE003
444ns,279FB74A7572135E8F9B8EF6D1EEE003
444ns,279FB74A7572135E8F9B8EF6D1EEE003
444ns,279FB74A7572135E8F9B8EF6D1EEE003
444ns,279FB74A7572135E8F9B8EF6D1EEE003
444ns,279FB74A7572135E8F9B8EF6D1EEE003
448ns,279FB74A7572135E8F9B8EF6D1EEE003
448ns,279FB74A7572135E8F9B8EF6D1EEE003
448ns,279FB74A7572135E8F9B8EF6D1EEE003
448ns,279FB74A7572135E8F9B8EF6D1EEE003
448ns,279FB74A7572135E8F9B8EF6D1EEE003
452ns,279FB74A7572135E8F9B8EF6D1EEE003
452ns,279FB74A7572135E8F9B8EF6D1EEE003
452ns,279FB74A7572135E8F9B8EF6D1EEE003
452ns,279FB74A7572135E8F9B8EF6D1EEE003
456ns,279FB74A7572135E8F9B8EF6D1EEE003
456ns,279FB74A7572135E8F9B8EF6D1EEE003
456ns,279FB74A7572135E8F9B8EF6D1EEE003
456ns,279FB74A7572135E8F9B8EF6D1EEE003
456ns,279FB74A7572135E8F9B8EF6D1EEE003
460ns,279FB74A7572135E8F9B8EF6D1EEE003
460ns,279FB74A7572135E8F9B8EF6D1EEE003
460ns,279FB74A7572135E8F9B8EF6D1EEE003
460ns,279FB74A7572135E8F9B8EF6D1EEE003
460ns,279FB74A7572135E8F9B8EF6D1EEE003
464ns,279FB74A7572135E8F9B8EF6D1EEE003
464ns,279FB74A7572135E8F9B8EF6D1EEE003
464ns,279FB74A7572135E8F9B8EF6D1EEE003
464ns,279FB74A7572135E8F9B8EF6D1EEE003
464ns,279FB74A7572135E8F9B8EF6D1EEE003
468ns,279FB74A7572135E8F9B8EF6D1EEE003
468ns,279FB74A7572135E8F9B8EF6D1EEE003
468ns,279FB74A7572135E8F9B8EF6D1EEE003
468ns,279FB74A7572135E8F9B8EF6D1EEE003
472ns,279FB74A7572135E8F9B8EF6D1EEE003
472ns,279FB74A7572135E8F9B8EF6D1EEE003
472ns,279FB74A7572135E8F9B8EF6D1EEE003
472ns,279FB74A7572135E8F9B8EF6D1EEE003
472ns,279FB74A7572135E8F9B8EF6D1EEE003
476ns,279FB74A7572135E8F9B8EF6D1EEE003
476ns,279FB74A7572135E8F9B8EF6D1EEE003
476ns,279FB74A7572135E8F9B8EF6D1EEE003
480ns,279FB74A7572135E8F9B8EF6D1EEE003
480ns,279FB74A7572135E8F9B8EF6D1EEE003
480ns,279FB74A7572135E8F9B8EF6D1EEE003
480ns,279FB74A7572135E8F9B8EF6D1EEE003
484ns,279FB74A7572135E8F9B8EF6D1EEE003
484ns,279FB74A7572135E8F9B8EF6D1EEE003
484ns,279FB74A7572135E8F9B8EF6D1EEE003
484ns,279FB74A7572135E8F9B8EF6D1EEE003
484ns,279FB74A7572135E8F9B8EF6D1EEE003
488ns,279FB74A7572135E8F9B8EF6D1EEE003
488ns,279FB74A7572135E8F9B8EF6D1EEE003
488ns,279FB74A7572135E8F9B8EF6D1EEE003
488ns,279FB74A7572135E8F9B8EF6D1EEE003
492ns,279FB74A7572135E8F9B8EF6D1EEE003
492ns,279FB74A7572135E8F9B8EF6D1EEE003
492ns,279FB74A7572135E8F9B8EF6D1EEE003
492ns,279FB74A7572135E8F9B8EF6D1EEE003
492ns,279FB74A7572135E8F9B8EF6D1EEE003
496ns,279FB74A7572135E8F9B8EF6D1EEE003
496ns,279FB74A7572135E8F9B8EF6D1EEE003
496ns,279FB74A7572135E8F9B8EF6D1EEE003
496ns,279FB74A7572135E8F9B8EF6D1EEE003
496ns,279FB74A7572135E8F9B8EF6D1EEE003
500ns,279FB74A7572135E8F9B8EF6D1EEE003
500ns,279FB74A7572135E8F9B8EF6D1EEE003
500ns,279FB74A7572135E8F9B8EF6D1EEE003
500ns,279FB74A7572135E8F9B8EF6D1EEE003
500ns,279FB74A7572135E8F9B8EF6D1EEE003
504ns,279FB74A7572135E8F9B8EF6D1EEE003
504ns,279FB74A7572135E8F9B8EF6D1EEE003
504ns,279FB74A7572135E8F9B8EF6D1EEE003
504ns,279FB74A7572135E8F9B8EF6D1EEE003
504ns,279FB74A7572135E8F9B8EF6D1EEE003
508ns,279FB74A7572135E8F9B8EF6D1EEE003
508ns,279FB74A7572135E8F9B8EF6D1EEE003
508ns,279FB74A7572135E8F9B8EF6D1EEE003
508ns,279FB74A7572135E8F9B8EF6D1EEE003
512ns,279FB74A7572135E8F9B8EF6D1EEE003
512ns,279FB74A7572135E8F9B8EF6D1EEE003
512ns,279FB74A7572135E8F9B8EF6D1EEE003
512ns,279FB74A7572135E8F9B8EF6D1EEE003
516ns,279FB74A7572135E8F9B8EF6D1EEE003
516ns,279FB74A7572135E8F9B8EF6D1EEE003
516ns,279FB74A7572135E8F9B8EF6D1EEE003
516ns,279FB74A7572135E8F9B8EF6D1EEE003
516ns,279FB74A7572135E8F9B8EF6D1EEE003
520ns,279FB74A7572135E8F9B8EF6D1EEE003
520ns,279FB74A7572135E8F9B8EF6D1EEE003
520ns,279FB74A7572135E8F9B8EF6D1EEE003
520ns,279FB74A7572135E8F9B8EF6D1EEE003
520ns,279FB74A7572135E8F9B8EF6D1EEE003
524ns,279FB74A7572135E8F9B8EF6D1EEE003
524ns,279FB74A7572135E8F9B8EF6D1EEE003
524ns,279FB74A7572135E8F9B8EF6D1EEE003
524ns,279FB74A7572135E8F9B8EF6D1EEE003
524ns,279FB74A7572135E8F9B8EF6D1EEE003
528ns,279FB74A7572135E8F9B8EF6D1EEE003
528ns,279FB74A7572135E8F9B8EF6D1EEE003
528ns,279FB74A7572135E8F9B8EF6D1EEE003
528ns,279FB74A7572135E8F9B8EF6D1EEE003
528ns,279FB74A7572135E8F9B8EF6D1EEE003
532ns,279FB74A7572135E8F9B8EF6D1EEE003
532ns,279FB74A7572135E8F9B8EF6D1EEE003
532ns,279FB74A7572135E8F9B8EF6D1EEE003
532ns,279FB74A7572135E8F9B8EF6D1EEE003
532ns,279FB74A7572135E8F9B8EF6D1EEE003
536ns,279FB74A7572135E8F9B8EF6D1EEE003
536ns,279FB74A7572135E8F9B8EF6D1EEE003
536ns,279FB74A7572135E8F9B8EF6D1EEE003
536ns,279FB74A7572135E8F9B8EF6D1EEE003
536ns,279FB74A7572135E8F9B8EF6D1EEE003
540ns,279FB74A7572135E8F9B8EF6D1EEE003
540ns,279FB74A7572135E8F9B8EF6D1EEE003
540ns,279FB74A7572135E8F9B8EF6D1EEE003
540ns,279FB74A7572135E8F9B8EF6D1EEE003
540ns,279FB74A7572135E8F9B8EF6D1EEE003
544ns,279FB74A7572135E8F9B8EF6D1EEE003
544ns,279FB74A7572135E8F9B8EF6D1EEE003
544ns,279FB74A7572135E8F9B8EF6D1EEE003
544ns,279FB74A7572135E8F9B8EF6D1EEE003
544ns,279FB74A7572135E8F9B8EF6D1EEE003
548ns,279FB74A7572135E8F9B8EF6D1EEE003
552ns,279FB74A7572135E8F9B8EF6D1EEE003
556ns,279FB74A7572135E8F9B8EF6D1EEE003
556ns,279FB74A7572135E8F9B8EF6D1EEE003
556ns,279FB74A7572135E8F9B8EF6D1EEE003
556ns,279FB74A7572135E8F9B8EF6D1EEE003
556ns,279FB74A7572135E8F9B8EF6D1EEE003
560ns,279FB74A7572135E8F9B8EF6D1EEE003
560ns,279FB74A7572135E8F9B8EF6D1EEE003
560ns,279FB74A7572135E8F9B8EF6D1EEE003
560ns,279FB74A7572135E8F9B8EF6D1EEE003
560ns,279FB74A7572135E8F9B8EF6D1EEE003
564ns,279FB74A7572135E8F9B8EF6D1EEE003
564ns,279FB74A7572135E8F9B8EF6D1EEE003
564ns,279FB74A7572135E8F9B8EF6D1EEE003
564ns,279FB74A7572135E8F9B8EF6D1EEE003
564ns,279FB74A7572135E8F9B8EF6D1EEE003
568ns,279FB74A7572135E8F9B8EF6D1EEE003
568ns,279FB74A7572135E8F9B8EF6D1EEE003
568ns,279FB74A7572135E8F9B8EF6D1EEE003
568ns,279FB74A7572135E8F9B8EF6D1EEE003
568ns,279FB74A7572135E8F9B8EF6D1EEE003
572ns,279FB74A7572135E8F9B8EF6D1EEE003
572ns,279FB74A7572135E8F9B8EF6D1EEE003
572ns,279FB74A7572135E8F9B8EF6D1EEE003
572ns,279FB74A7572135E8F9B8EF6D1EEE003
572ns,279FB74A7572135E8F9B8EF6D1EEE003
576ns,279FB74A7572135E8F9B8EF6D1EEE003
576ns,279FB74A7572135E8F9B8EF6D1EEE003
576ns,279FB74A7572135E8F9B8EF6D1EEE003
576ns,279FB74A7572135E8F9B8EF6D1EEE003
576ns,279FB74A7572135E8F9B8EF6D1EEE003
580ns,279FB74A7572135E8F9B8EF6D1EEE003
580ns,279FB74A7572135E8F9B8EF6D1EEE003
580ns,279FB74A7572135E8F9B8EF6D1EEE003
580ns,279FB74A7572135E8F9B8EF6D1EEE003
584ns,279FB74A7572135E8F9B8EF6D1EEE003
584ns,279FB74A7572135E8F9B8EF6D1EEE003
584ns,279FB74A7572135E8F9B8EF6D1EEE003
584ns,279FB74A7572135E8F9B8EF6D1EEE003
584ns,279FB74A7572135E8F9B8EF6D1EEE003
588ns,279FB74A7572135E8F9B8EF6D1EEE003
588ns,279FB74A7572135E8F9B8EF6D1EEE003
588ns,279FB74A7572135E8F9B8EF6D1EEE003
588ns,279FB74A7572135E8F9B8EF6D1EEE003
588ns,279FB74A7572135E8F9B8EF6D1EEE003
592ns,279FB74A7572135E8F9B8EF6D1EEE003
592ns,279FB74A7572135E8F9B8EF6D1EEE003
592ns,279FB74A7572135E8F9B8EF6D1EEE003
592ns,279FB74A7572135E8F9B8EF6D1EEE003
592ns,279FB74A7572135E8F9B8EF6D1EEE003
596ns,279FB74A7572135E8F9B8EF6D1EEE003
596ns,279FB74A7572135E8F9B8EF6D1EEE003
596ns,279FB74A7572135E8F9B8EF6D1EEE003
596ns,279FB74A7572135E8F9B8EF6D1EEE003
600ns,279FB74A7572135E8F9B8EF6D1EEE003
600ns,279FB74A7572135E8F9B8EF6D1EEE003
600ns,279FB74A7572135E8F9B8EF6D1EEE003
600ns,279FB74A7572135E8F9B8EF6D1EEE003
600ns,279FB74A7572135E8F9B8EF6D1EEE003
604ns,279FB74A7572135E8F9B8EF6D1EEE003
604ns,279FB74A7572135E8F9B8EF6D1EEE003
604ns,279FB74A7572135E8F9B8EF6D1EEE003
604ns,279FB74A7572135E8F9B8EF6D1EEE003
604ns,279FB74A7572135E8F9B8EF6D1EEE003
608ns,279FB74A7572135E8F9B8EF6D1EEE003
608ns,279FB74A7572135E8F9B8EF6D1EEE003
608ns,279FB74A7572135E8F9B8EF6D1EEE003
608ns,279FB74A7572135E8F9B8EF6D1EEE003
608ns,279FB74A7572135E8F9B8EF6D1EEE003
612ns,279FB74A7572135E8F9B8EF6D1EEE003
612ns,279FB74A7572135E8F9B8EF6D1EEE003
612ns,279FB74A7572135E8F9B8EF6D1EEE003
612ns,279FB74A7572135E8F9B8EF6D1EEE003
612ns,279FB74A7572135E8F9B8EF6D1EEE003
616ns,279FB74A7572135E8F9B8EF6D1EEE003
616ns,279FB74A7572135E8F9B8EF6D1EEE003
616ns,279FB74A7572135E8F9B8EF6D1EEE003
616ns,279FB74A7572135E8F9B8EF6D1EEE003
616ns,279FB74A7572135E8F9B8EF6D1EEE003
620ns,279FB74A7572135E8F9B8EF6D1EEE003
620ns,279FB74A7572135E8F9B8EF6D1EEE003
620ns,279FB74A7572135E8F9B8EF6D1EEE003
620ns,279FB74A7572135E8F9B8EF6D1EEE003
620ns,279FB74A7572135E8F9B8EF6D1EEE003
624ns,279FB74A7572135E8F9B8EF6D1EEE003
624ns,279FB74A7572135E8F9B8EF6D1EEE003
624ns,279FB74A7572135E8F9B8EF6D1EEE003
624ns,279FB74A7572135E8F9B8EF6D1EEE003
624ns,279FB74A7572135E8F9B8EF6D1EEE003
628ns,279FB74A7572135E8F9B8EF6D1EEE003
628ns,279FB74A7572135E8F9B8EF6D1EEE003
628ns,279FB74A7572135E8F9B8EF6D1EEE003
628ns,279FB74A7572135E8F9B8EF6D1EEE003
628ns,279FB74A7572135E8F9B8EF6D1EEE003
632ns,279FB74A7572135E8F9B8EF6D1EEE003
632ns,279FB74A7572135E8F9B8EF6D1EEE003
632ns,279FB74A7572135E8F9B8EF6D1EEE003
632ns,279FB74A7572135E8F9B8EF6D1EEE003
636ns,279FB74A7572135E8F9B8EF6D1EEE003
636ns,279FB74A7572135E8F9B8EF6D1EEE003
636ns,279FB74A7572135E8F9B8EF6D1EEE003
636ns,279FB74A7572135E8F9B8EF6D1EEE003
636ns,279FB74A7572135E8F9B8EF6D1EEE003
640ns,279FB74A7572135E8F9B8EF6D1EEE003
640ns,279FB74A7572135E8F9B8EF6D1EEE003
640ns,279FB74A7572135E8F9B8EF6D1EEE003
640ns,279FB74A7572135E8F9B8EF6D1EEE003
640ns,279FB74A7572135E8F9B8EF6D1EEE003
644ns,279FB74A7572135E8F9B8EF6D1EEE003
644ns,279FB74A7572135E8F9B8EF6D1EEE003
644ns,279FB74A7572135E8F9B8EF6D1EEE003
644ns,279FB74A7572135E8F9B8EF6D1EEE003
644ns,279FB74A7572135E8F9B8EF6D1EEE003
648ns,279FB74A7572135E8F9B8EF6D1EEE003
648ns,279FB74A7572135E8F9B8EF6D1EEE003
648ns,279FB74A7572135E8F9B8EF6D1EEE003
648ns,279FB74A7572135E8F9B8EF6D1EEE003
648ns,279FB74A7572135E8F9B8EF6D1EEE003
652ns,279FB74A7572135E8F9B8EF6D1EEE003
652ns,279FB74A7572135E8F9B8EF6D1EEE003
652ns,279FB74A7572135E8F9B8EF6D1EEE003
652ns,279FB74A7572135E8F9B8EF6D1EEE003
652ns,279FB74A7572135E8F9B8EF6D1EEE003
656ns,279FB74A7572135E8F9B8EF6D1EEE003
656ns,279FB74A7572135E8F9B8EF6D1EEE003
656ns,279FB74A7572135E8F9B8EF6D1EEE003
656ns,279FB74A7572135E8F9B8EF6D1EEE003
660ns,279FB74A7572135E8F9B8EF6D1EEE003
660ns,279FB74A7572135E8F9B8EF6D1EEE003
660ns,279FB74A7572135E8F9B8EF6D1EEE003
660ns,279FB74A7572135E8F9B8EF6D1EEE003
660ns,279FB74A7572135E8F9B8EF6D1EEE003
664ns,279FB74A7572135E8F9B8EF6D1EEE003
664ns,279FB74A7572135E8F9B8EF6D1EEE003
664ns,279FB74A7572135E8F9B8EF6D1EEE003
664ns,279FB74A7572135E8F9B8EF6D1EEE003
664ns,279FB74A7572135E8F9B8EF6D1EEE003
668ns,279FB74A7572135E8F9B8EF6D1EEE003
668ns,279FB74A7572135E8F9B8EF6D1EEE003
668ns,279FB74A7572135E8F9B8EF6D1EEE003
668ns,279FB74A7572135E8F9B8EF6D1EEE003
668ns,279FB74A7572135E8F9B8EF6D1EEE003
672ns,279FB74A7572135E8F9B8EF6D1EEE003
672ns,279FB74A7572135E8F9B8EF6D1EEE003
672ns,279FB74A7572135E8F9B8EF6D1EEE003
672ns,279FB74A7572135E8F9B8EF6D1EEE003
672ns,279FB74A7572135E8F9B8EF6D1EEE003
676ns,279FB74A7572135E8F9B8EF6D1EEE003
676ns,279FB74A7572135E8F9B8EF6D1EEE003
676ns,279FB74A7572135E8F9B8EF6D1EEE003
676ns,279FB74A7572135E8F9B8EF6D1EEE003
680ns,279FB74A7572135E8F9B8EF6D1EEE003
680ns,279FB74A7572135E8F9B8EF6D1EEE003
680ns,279FB74A7572135E8F9B8EF6D1EEE003
680ns,279FB74A7572135E8F9B8EF6D1EEE003
680ns,279FB74A7572135E8F9B8EF6D1EEE003
684ns,279FB74A7572135E8F9B8EF6D1EEE003
684ns,279FB74A7572135E8F9B8EF6D1EEE003
684ns,279FB74A7572135E8F9B8EF6D1EEE003
684ns,279FB74A7572135E8F9B8EF6D1EEE003
684ns,279FB74A7572135E8F9B8EF6D1EEE003
688ns,279FB74A7572135E8F9B8EF6D1EEE003
688ns,279FB74A7572135E8F9B8EF6D1EEE003
688ns,279FB74A7572135E8F9B8EF6D1EEE003
688ns,279FB74A7572135E8F9B8EF6D1EEE003
688ns,279FB74A7572135E8F9B8EF6D1EEE003
692ns,279FB74A7572135E8F9B8EF6D1EEE003
692ns,279FB74A7572135E8F9B8EF6D1EEE003
692ns,279FB74A7572135E8F9B8EF6D1EEE003
692ns,9D74574A78C8690DBF69D0AA648DDC50

0x200011f8 04030201 08070605 0c0b0a55 100f0e0d ........U....... (text + canary)
0x20001208 00000008 77665544 bbaa9988 ffeeddcc ....DUfw........ (key)

692ns,279FB74A7572135E8F9B8EF6D1EEE003
696ns,279FB74A7572135E8F9B8EF6D1EEE003
696ns,279FB74A7572135E8F9B8EF6D1EEE003
696ns,279FB74A7572135E8F9B8EF6D1EEE003
696ns,279FB74A7572135E8F9B8EF6D1EEE003
696ns,279FB74A7572135E8F9B8EF6D1EEE003
700ns,279FB74A7572135E8F9B8EF6D1EEE003
700ns,279FB74A7572135E8F9B8EF6D1EEE003
700ns,279FB74A7572135E8F9B8EF6D1EEE003
700ns,279FB74A7572135E8F9B8EF6D1EEE003
700ns,279FB74A7572135E8F9B8EF6D1EEE003
704ns,279FB74A7572135E8F9B8EF6D1EEE003
704ns,279FB74A7572135E8F9B8EF6D1EEE003
704ns,279FB74A7572135E8F9B8EF6D1EEE003
704ns,279FB74A7572135E8F9B8EF6D1EEE003
704ns,279FB74A7572135E8F9B8EF6D1EEE003
708ns,279FB74A7572135E8F9B8EF6D1EEE003
708ns,279FB74A7572135E8F9B8EF6D1EEE003
708ns,279FB74A7572135E8F9B8EF6D1EEE003
708ns,279FB74A7572135E8F9B8EF6D1EEE003
708ns,279FB74A7572135E8F9B8EF6D1EEE003
712ns,279FB74A7572135E8F9B8EF6D1EEE003
712ns,279FB74A7572135E8F9B8EF6D1EEE003
712ns,279FB74A7572135E8F9B8EF6D1EEE003
712ns,279FB74A7572135E8F9B8EF6D1EEE003
716ns,279FB74A7572135E8F9B8EF6D1EEE003
716ns,279FB74A7572135E8F9B8EF6D1EEE003
716ns,279FB74A7572135E8F9B8EF6D1EEE003
716ns,279FB74A7572135E8F9B8EF6D1EEE003
720ns,279FB74A7572135E8F9B8EF6D1EEE003
720ns,279FB74A7572135E8F9B8EF6D1EEE003
720ns,279FB74A7572135E8F9B8EF6D1EEE003
720ns,279FB74A7572135E8F9B8EF6D1EEE003
720ns,279FB74A7572135E8F9B8EF6D1EEE003
724ns,279FB74A7572135E8F9B8EF6D1EEE003
724ns,279FB74A7572135E8F9B8EF6D1EEE003
724ns,279FB74A7572135E8F9B8EF6D1EEE003
724ns,279FB74A7572135E8F9B8EF6D1EEE003
724ns,279FB74A7572135E8F9B8EF6D1EEE003
728ns,279FB74A7572135E8F9B8EF6D1EEE003
728ns,279FB74A7572135E8F9B8EF6D1EEE003
728ns,279FB74A7572135E8F9B8EF6D1EEE003
728ns,279FB74A7572135E8F9B8EF6D1EEE003
728ns,279FB74A7572135E8F9B8EF6D1EEE003
732ns,279FB74A7572135E8F9B8EF6D1EEE003
732ns,279FB74A7572135E8F9B8EF6D1EEE003
732ns,279FB74A7572135E8F9B8EF6D1EEE003
732ns,279FB74A7572135E8F9B8EF6D1EEE003
732ns,279FB74A7572135E8F9B8EF6D1EEE003
736ns,279FB74A7572135E8F9B8EF6D1EEE003
736ns,279FB74A7572135E8F9B8EF6D1EEE003
736ns,279FB74A7572135E8F9B8EF6D1EEE003
736ns,279FB74A7572135E8F9B8EF6D1EEE003
736ns,279FB74A7572135E8F9B8EF6D1EEE003
740ns,279FB74A7572135E8F9B8EF6D1EEE003
740ns,279FB74A7572135E8F9B8EF6D1EEE003
740ns,279FB74A7572135E8F9B8EF6D1EEE003
740ns,279FB74A7572135E8F9B8EF6D1EEE003
744ns,279FB74A7572135E8F9B8EF6D1EEE003
744ns,279FB74A7572135E8F9B8EF6D1EEE003
744ns,279FB74A7572135E8F9B8EF6D1EEE003
744ns,279FB74A7572135E8F9B8EF6D1EEE003
744ns,279FB74A7572135E8F9B8EF6D1EEE003
748ns,279FB74A7572135E8F9B8EF6D1EEE003
748ns,279FB74A7572135E8F9B8EF6D1EEE003
748ns,279FB74A7572135E8F9B8EF6D1EEE003
748ns,279FB74A7572135E8F9B8EF6D1EEE003
748ns,279FB74A7572135E8F9B8EF6D1EEE003
752ns,279FB74A7572135E8F9B8EF6D1EEE003
752ns,279FB74A7572135E8F9B8EF6D1EEE003
752ns,279FB74A7572135E8F9B8EF6D1EEE003
752ns,279FB74A7572135E8F9B8EF6D1EEE003
752ns,279FB74A7572135E8F9B8EF6D1EEE003
756ns,279FB74A7572135E8F9B8EF6D1EEE003
756ns,279FB74A7572135E8F9B8EF6D1EEE003
756ns,279FB74A7572135E8F9B8EF6D1EEE003
756ns,9D74574A78C8690DBF69D0AA648DDC50
756ns,279FB74A7572135E8F9B8EF6D1EEE003
760ns,279FB74A7572135E8F9B8EF6D1EEE003
760ns,279FB74A7572135E8F9B8EF6D1EEE003
760ns,279FB74A7572135E8F9B8EF6D1EEE003
760ns,279FB74A7572135E8F9B8EF6D1EEE003
760ns,279FB74A7572135E8F9B8EF6D1EEE003
764ns,279FB74A7572135E8F9B8EF6D1EEE003
764ns,279FB74A7572135E8F9B8EF6D1EEE003
764ns,279FB74A7572135E8F9B8EF6D1EEE003
764ns,279FB74A7572135E8F9B8EF6D1EEE003
764ns,279FB74A7572135E8F9B8EF6D1EEE003
768ns,279FB74A7572135E8F9B8EF6D1EEE003
768ns,279FB74A7572135E8F9B8EF6D1EEE003
768ns,279FB74A7572135E8F9B8EF6D1EEE003
768ns,279FB74A7572135E8F9B8EF6D1EEE003
772ns,279FB74A7572135E8F9B8EF6D1EEE003
772ns,279FB74A7572135E8F9B8EF6D1EEE003
772ns,279FB74A7572135E8F9B8EF6D1EEE003
772ns,279FB74A7572135E8F9B8EF6D1EEE003
776ns,279FB74A7572135E8F9B8EF6D1EEE003
776ns,279FB74A7572135E8F9B8EF6D1EEE003
776ns,279FB74A7572135E8F9B8EF6D1EEE003
776ns,279FB74A7572135E8F9B8EF6D1EEE003
776ns,279FB74A7572135E8F9B8EF6D1EEE003
780ns,279FB74A7572135E8F9B8EF6D1EEE003
780ns,279FB74A7572135E8F9B8EF6D1EEE003
780ns,279FB74A7572135E8F9B8EF6D1EEE003
780ns,279FB74A7572135E8F9B8EF6D1EEE003
780ns,279FB74A7572135E8F9B8EF6D1EEE003
784ns,279FB74A7572135E8F9B8EF6D1EEE003
784ns,279FB74A7572135E8F9B8EF6D1EEE003
784ns,279FB74A7572135E8F9B8EF6D1EEE003
784ns,279FB74A7572135E8F9B8EF6D1EEE003
784ns,279FB74A7572135E8F9B8EF6D1EEE003
788ns,279FB74A7572135E8F9B8EF6D1EEE003
788ns,279FB74A7572135E8F9B8EF6D1EEE003
788ns,279FB74A7572135E8F9B8EF6D1EEE003
788ns,279FB74A7572135E8F9B8EF6D1EEE003
788ns,279FB74A7572135E8F9B8EF6D1EEE003
792ns,279FB74A7572135E8F9B8EF6D1EEE003
792ns,279FB74A7572135E8F9B8EF6D1EEE003
792ns,279FB74A7572135E8F9B8EF6D1EEE003
792ns,279FB74A7572135E8F9B8EF6D1EEE003
792ns,279FB74A7572135E8F9B8EF6D1EEE003
796ns,279FB74A7572135E8F9B8EF6D1EEE003
796ns,279FB74A7572135E8F9B8EF6D1EEE003
796ns,279FB74A7572135E8F9B8EF6D1EEE003
796ns,279FB74A7572135E8F9B8EF6D1EEE003
800ns,279FB74A7572135E8F9B8EF6D1EEE003
800ns,279FB74A7572135E8F9B8EF6D1EEE003
800ns,279FB74A7572135E8F9B8EF6D1EEE003
800ns,279FB74A7572135E8F9B8EF6D1EEE003
800ns,279FB74A7572135E8F9B8EF6D1EEE003
804ns,279FB74A7572135E8F9B8EF6D1EEE003
804ns,279FB74A7572135E8F9B8EF6D1EEE003
804ns,279FB74A7572135E8F9B8EF6D1EEE003
804ns,279FB74A7572135E8F9B8EF6D1EEE003
804ns,279FB74A7572135E8F9B8EF6D1EEE003
808ns,279FB74A7572135E8F9B8EF6D1EEE003
808ns,279FB74A7572135E8F9B8EF6D1EEE003
808ns,279FB74A7572135E8F9B8EF6D1EEE003
808ns,279FB74A7572135E8F9B8EF6D1EEE003
808ns,279FB74A7572135E8F9B8EF6D1EEE003
812ns,279FB74A7572135E8F9B8EF6D1EEE003
812ns,279FB74A7572135E8F9B8EF6D1EEE003
812ns,279FB74A7572135E8F9B8EF6D1EEE003
812ns,279FB74A7572135E8F9B8EF6D1EEE003
812ns,279FB74A7572135E8F9B8EF6D1EEE003
816ns,279FB74A7572135E8F9B8EF6D1EEE003
816ns,279FB74A7572135E8F9B8EF6D1EEE003
816ns,279FB74A7572135E8F9B8EF6D1EEE003
816ns,279FB74A7572135E8F9B8EF6D1EEE003
816ns,279FB74A7572135E8F9B8EF6D1EEE003
820ns,279FB74A7572135E8F9B8EF6D1EEE003
820ns,279FB74A7572135E8F9B8EF6D1EEE003
820ns,279FB74A7572135E8F9B8EF6D1EEE003
820ns,279FB74A7572135E8F9B8EF6D1EEE003
820ns,279FB74A7572135E8F9B8EF6D1EEE003
824ns,279FB74A7572135E8F9B8EF6D1EEE003
824ns,279FB74A7572135E8F9B8EF6D1EEE003
824ns,279FB74A7572135E8F9B8EF6D1EEE003
824ns,279FB74A7572135E8F9B8EF6D1EEE003
824ns,279FB74A7572135E8F9B8EF6D1EEE003
828ns,279FB74A7572135E8F9B8EF6D1EEE003
828ns,279FB74A7572135E8F9B8EF6D1EEE003
828ns,279FB74A7572135E8F9B8EF6D1EEE003
828ns,279FB74A7572135E8F9B8EF6D1EEE003
828ns,279FB74A7572135E8F9B8EF6D1EEE003
832ns,279FB74A7572135E8F9B8EF6D1EEE003
832ns,279FB74A7572135E8F9B8EF6D1EEE003
832ns,279FB74A7572135E8F9B8EF6D1EEE003
832ns,279FB74A7572135E8F9B8EF6D1EEE003
832ns,279FB74A7572135E8F9B8EF6D1EEE003
836ns,279FB74A7572135E8F9B8EF6D1EEE003
836ns,279FB74A7572135E8F9B8EF6D1EEE003
836ns,279FB74A7572135E8F9B8EF6D1EEE003
836ns,279FB74A7572135E8F9B8EF6D1EEE003
840ns,279FB74A7572135E8F9B8EF6D1EEE003
840ns,279FB74A7572135E8F9B8EF6D1EEE003
840ns,279FB74A7572135E8F9B8EF6D1EEE003
840ns,279FB74A7572135E8F9B8EF6D1EEE003
840ns,279FB74A7572135E8F9B8EF6D1EEE003
844ns,279FB74A7572135E8F9B8EF6D1EEE003
844ns,279FB74A7572135E8F9B8EF6D1EEE003
844ns,279FB74A7572135E8F9B8EF6D1EEE003
844ns,279FB74A7572135E8F9B8EF6D1EEE003
844ns,279FB74A7572135E8F9B8EF6D1EEE003
848ns,279FB74A7572135E8F9B8EF6D1EEE003
848ns,279FB74A7572135E8F9B8EF6D1EEE003
848ns,279FB74A7572135E8F9B8EF6D1EEE003
848ns,279FB74A7572135E8F9B8EF6D1EEE003
848ns,279FB74A7572135E8F9B8EF6D1EEE003
852ns,279FB74A7572135E8F9B8EF6D1EEE003
852ns,279FB74A7572135E8F9B8EF6D1EEE003
852ns,279FB74A7572135E8F9B8EF6D1EEE003
852ns,279FB74A7572135E8F9B8EF6D1EEE003
852ns,279FB74A7572135E8F9B8EF6D1EEE003
856ns,279FB74A7572135E8F9B8EF6D1EEE003
856ns,279FB74A7572135E8F9B8EF6D1EEE003
856ns,279FB74A7572135E8F9B8EF6D1EEE003
856ns,279FB74A7572135E8F9B8EF6D1EEE003
856ns,279FB74A7572135E8F9B8EF6D1EEE003
860ns,279FB74A7572135E8F9B8EF6D1EEE003
860ns,279FB74A7572135E8F9B8EF6D1EEE003
860ns,279FB74A7572135E8F9B8EF6D1EEE003
860ns,279FB74A7572135E8F9B8EF6D1EEE003
860ns,279FB74A7572135E8F9B8EF6D1EEE003
864ns,279FB74A7572135E8F9B8EF6D1EEE003
864ns,279FB74A7572135E8F9B8EF6D1EEE003
864ns,279FB74A7572135E8F9B8EF6D1EEE003
864ns,279FB74A7572135E8F9B8EF6D1EEE003
864ns,279FB74A7572135E8F9B8EF6D1EEE003
868ns,279FB74A7572135E8F9B8EF6D1EEE003
868ns,279FB74A7572135E8F9B8EF6D1EEE003
868ns,279FB74A7572135E8F9B8EF6D1EEE003
868ns,279FB74A7572135E8F9B8EF6D1EEE003
868ns,279FB74A7572135E8F9B8EF6D1EEE003
872ns,279FB74A7572135E8F9B8EF6D1EEE003
872ns,279FB74A7572135E8F9B8EF6D1EEE003
872ns,279FB74A7572135E8F9B8EF6D1EEE003
872ns,279FB74A7572135E8F9B8EF6D1EEE003
872ns,279FB74A7572135E8F9B8EF6D1EEE003
876ns,279FB74A7572135E8F9B8EF6D1EEE003
876ns,279FB74A7572135E8F9B8EF6D1EEE003
876ns,279FB74A7572135E8F9B8EF6D1EEE003
876ns,279FB74A7572135E8F9B8EF6D1EEE003
876ns,279FB74A7572135E8F9B8EF6D1EEE003
880ns,279FB74A7572135E8F9B8EF6D1EEE003
880ns,279FB74A7572135E8F9B8EF6D1EEE003
880ns,279FB74A7572135E8F9B8EF6D1EEE003
880ns,279FB74A7572135E8F9B8EF6D1EEE003
880ns,279FB74A7572135E8F9B8EF6D1EEE003
884ns,279FB74A7572135E8F9B8EF6D1EEE003
884ns,279FB74A7572135E8F9B8EF6D1EEE003
884ns,279FB74A7572135E8F9B8EF6D1EEE003
884ns,279FB74A7572135E8F9B8EF6D1EEE003
884ns,279FB74A7572135E8F9B8EF6D1EEE003
888ns,279FB74A7572135E8F9B8EF6D1EEE003
888ns,279FB74A7572135E8F9B8EF6D1EEE003
888ns,279FB74A7572135E8F9B8EF6D1EEE003
888ns,279FB74A7572135E8F9B8EF6D1EEE003
888ns,279FB74A7572135E8F9B8EF6D1EEE003
892ns,279FB74A7572135E8F9B8EF6D1EEE003
892ns,279FB74A7572135E8F9B8EF6D1EEE003
892ns,279FB74A7572135E8F9B8EF6D1EEE003
892ns,279FB74A7572135E8F9B8EF6D1EEE003
892ns,279FB74A7572135E8F9B8EF6D1EEE003
896ns,279FB74A7572135E8F9B8EF6D1EEE003
896ns,279FB74A7572135E8F9B8EF6D1EEE003
896ns,279FB74A7572135E8F9B8EF6D1EEE003
896ns,279FB74A7572135E8F9B8EF6D1EEE003
896ns,279FB74A7572135E8F9B8EF6D1EEE003
900ns,279FB74A7572135E8F9B8EF6D1EEE003
900ns,279FB74A7572135E8F9B8EF6D1EEE003
900ns,279FB74A7572135E8F9B8EF6D1EEE003
900ns,279FB74A7572135E8F9B8EF6D1EEE003
900ns,279FB74A7572135E8F9B8EF6D1EEE003
904ns,279FB74A7572135E8F9B8EF6D1EEE003
904ns,279FB74A7572135E8F9B8EF6D1EEE003
904ns,279FB74A7572135E8F9B8EF6D1EEE003
904ns,279FB74A7572135E8F9B8EF6D1EEE003
904ns,279FB74A7572135E8F9B8EF6D1EEE003
908ns,279FB74A7572135E8F9B8EF6D1EEE003
908ns,279FB74A7572135E8F9B8EF6D1EEE003
908ns,279FB74A7572135E8F9B8EF6D1EEE003
908ns,279FB74A7572135E8F9B8EF6D1EEE003
908ns,279FB74A7572135E8F9B8EF6D1EEE003
912ns,279FB74A7572135E8F9B8EF6D1EEE003
912ns,279FB74A7572135E8F9B8EF6D1EEE003
912ns,279FB74A7572135E8F9B8EF6D1EEE003
912ns,279FB74A7572135E8F9B8EF6D1EEE003
912ns,279FB74A7572135E8F9B8EF6D1EEE003
916ns,279FB74A7572135E8F9B8EF6D1EEE003
916ns,279FB74A7572135E8F9B8EF6D1EEE003
916ns,279FB74A7572135E8F9B8EF6D1EEE003
916ns,279FB74A7572135E8F9B8EF6D1EEE003
916ns,279FB74A7572135E8F9B8EF6D1EEE003
920ns,279FB74A7572135E8F9B8EF6D1EEE003
920ns,279FB74A7572135E8F9B8EF6D1EEE003
920ns,279FB74A7572135E8F9B8EF6D1EEE003
920ns,279FB74A7572135E8F9B8EF6D1EEE003
920ns,279FB74A7572135E8F9B8EF6D1EEE003
924ns,279FB74A7572135E8F9B8EF6D1EEE003
924ns,279FB74A7572135E8F9B8EF6D1EEE003
924ns,279FB74A7572135E8F9B8EF6D1EEE003
924ns,279FB74A7572135E8F9B8EF6D1EEE003
924ns,279FB74A7572135E8F9B8EF6D1EEE003
928ns,279FB74A7572135E8F9B8EF6D1EEE003
928ns,279FB74A7572135E8F9B8EF6D1EEE003
928ns,279FB74A7572135E8F9B8EF6D1EEE003
928ns,279FB74A7572135E8F9B8EF6D1EEE003
928ns,279FB74A7572135E8F9B8EF6D1EEE003
932ns,279FB74A7572135E8F9B8EF6D1EEE003
932ns,279FB74A7572135E8F9B8EF6D1EEE003
932ns,279FB74A7572135E8F9B8EF6D1EEE003
932ns,279FB74A7572135E8F9B8EF6D1EEE003
932ns,279FB74A7572135E8F9B8EF6D1EEE003
936ns,279FB74A7572135E8F9B8EF6D1EEE003
936ns,279FB74A7572135E8F9B8EF6D1EEE003
936ns,279FB74A7572135E8F9B8EF6D1EEE003
936ns,279FB74A7572135E8F9B8EF6D1EEE003
936ns,279FB74A7572135E8F9B8EF6D1EEE003
940ns,279FB74A7572135E8F9B8EF6D1EEE003
940ns,279FB74A7572135E8F9B8EF6D1EEE003
940ns,279FB74A7572135E8F9B8EF6D1EEE003
940ns,279FB74A7572135E8F9B8EF6D1EEE003
944ns,279FB74A7572135E8F9B8EF6D1EEE003
944ns,279FB74A7572135E8F9B8EF6D1EEE003
944ns,279FB74A7572135E8F9B8EF6D1EEE003
944ns,279FB74A7572135E8F9B8EF6D1EEE003
944ns,279FB74A7572135E8F9B8EF6D1EEE003
948ns,279FB74A7572135E8F9B8EF6D1EEE003
948ns,279FB74A7572135E8F9B8EF6D1EEE003
948ns,279FB74A7572135E8F9B8EF6D1EEE003
948ns,279FB74A7572135E8F9B8EF6D1EEE003
948ns,279FB74A7572135E8F9B8EF6D1EEE003
952ns,279FB74A7572135E8F9B8EF6D1EEE003
952ns,279FB74A7572135E8F9B8EF6D1EEE003
952ns,279FB74A7572135E8F9B8EF6D1EEE003
952ns,279FB74A7572135E8F9B8EF6D1EEE003
952ns,279FB74A7572135E8F9B8EF6D1EEE003
956ns,279FB74A7572135E8F9B8EF6D1EEE003
956ns,279FB74A7572135E8F9B8EF6D1EEE003
956ns,279FB74A7572135E8F9B8EF6D1EEE003
956ns,279FB74A7572135E8F9B8EF6D1EEE003
956ns,279FB74A7572135E8F9B8EF6D1EEE003
960ns,279FB74A7572135E8F9B8EF6D1EEE003
960ns,279FB74A7572135E8F9B8EF6D1EEE003
960ns,279FB74A7572135E8F9B8EF6D1EEE003
960ns,279FB74A7572135E8F9B8EF6D1EEE003
960ns,279FB74A7572135E8F9B8EF6D1EEE003
964ns,279FB74A7572135E8F9B8EF6D1EEE003
964ns,279FB74A7572135E8F9B8EF6D1EEE003
964ns,279FB74A7572135E8F9B8EF6D1EEE003
964ns,279FB74A7572135E8F9B8EF6D1EEE003
964ns,279FB74A7572135E8F9B8EF6D1EEE003
968ns,279FB74A7572135E8F9B8EF6D1EEE003
968ns,279FB74A7572135E8F9B8EF6D1EEE003
968ns,279FB74A7572135E8F9B8EF6D1EEE003
968ns,279FB74A7572135E8F9B8EF6D1EEE003
968ns,279FB74A7572135E8F9B8EF6D1EEE003
972ns,279FB74A7572135E8F9B8EF6D1EEE003
972ns,279FB74A7572135E8F9B8EF6D1EEE003
972ns,279FB74A7572135E8F9B8EF6D1EEE003
972ns,279FB74A7572135E8F9B8EF6D1EEE003
972ns,279FB74A7572135E8F9B8EF6D1EEE003
976ns,279FB74A7572135E8F9B8EF6D1EEE003
976ns,279FB74A7572135E8F9B8EF6D1EEE003
976ns,279FB74A7572135E8F9B8EF6D1EEE003
976ns,279FB74A7572135E8F9B8EF6D1EEE003
976ns,279FB74A7572135E8F9B8EF6D1EEE003
980ns,279FB74A7572135E8F9B8EF6D1EEE003
980ns,279FB74A7572135E8F9B8EF6D1EEE003
980ns,279FB74A7572135E8F9B8EF6D1EEE003
980ns,279FB74A7572135E8F9B8EF6D1EEE003
980ns,279FB74A7572135E8F9B8EF6D1EEE003
984ns,279FB74A7572135E8F9B8EF6D1EEE003
984ns,279FB74A7572135E8F9B8EF6D1EEE003
984ns,279FB74A7572135E8F9B8EF6D1EEE003
984ns,279FB74A7572135E8F9B8EF6D1EEE003
984ns,279FB74A7572135E8F9B8EF6D1EEE003
988ns,279FB74A7572135E8F9B8EF6D1EEE003
988ns,279FB74A7572135E8F9B8EF6D1EEE003
988ns,279FB74A7572135E8F9B8EF6D1EEE003
988ns,279FB74A7572135E8F9B8EF6D1EEE003
988ns,279FB74A7572135E8F9B8EF6D1EEE003
992ns,279FB74A7572135E8F9B8EF6D1EEE003
992ns,279FB74A7572135E8F9B8EF6D1EEE003
992ns,279FB74A7572135E8F9B8EF6D1EEE003
992ns,279FB74A7572135E8F9B8EF6D1EEE003
992ns,279FB74A7572135E8F9B8EF6D1EEE003
996ns,279FB74A7572135E8F9B8EF6D1EEE003
996ns,279FB74A7572135E8F9B8EF6D1EEE003
996ns,279FB74A7572135E8F9B8EF6D1EEE003
996ns,279FB74A7572135E8F9B8EF6D1EEE003
996ns,279FB74A7572135E8F9B8EF6D1EEE003
1μs,279FB74A7572135E8F9B8EF6D1EEE003
1μs,279FB74A7572135E8F9B8EF6D1EEE003
1μs,279FB74A7572135E8F9B8EF6D1EEE003
1μs,279FB74A7572135E8F9B8EF6D1EEE003
1μs,279FB74A7572135E8F9B8EF6D1EEE003
1.004μs,279FB74A7572135E8F9B8EF6D1EEE003
1.004μs,279FB74A7572135E8F9B8EF6D1EEE003
1.004μs,279FB74A7572135E8F9B8EF6D1EEE003
1.004μs,279FB74A7572135E8F9B8EF6D1EEE003
1.0079999990000001μs,279FB74A7572135E8F9B8EF6D1EEE003
1.0079999990000001μs,279FB74A7572135E8F9B8EF6D1EEE003
1.0079999990000001μs,279FB74A7572135E8F9B8EF6D1EEE003
1.0079999990000001μs,279FB74A7572135E8F9B8EF6D1EEE003
1.012μs,279FB74A7572135E8F9B8EF6D1EEE003
1.012μs,279FB74A7572135E8F9B8EF6D1EEE003
1.012μs,279FB74A7572135E8F9B8EF6D1EEE003
1.012μs,279FB74A7572135E8F9B8EF6D1EEE003
1.012μs,279FB74A7572135E8F9B8EF6D1EEE003
1.016μs,279FB74A7572135E8F9B8EF6D1EEE003
1.016μs,279FB74A7572135E8F9B8EF6D1EEE003
1.016μs,279FB74A7572135E8F9B8EF6D1EEE003
1.016μs,279FB74A7572135E8F9B8EF6D1EEE003
1.016μs,279FB74A7572135E8F9B8EF6D1EEE003
1.02μs,279FB74A7572135E8F9B8EF6D1EEE003
1.02μs,279FB74A7572135E8F9B8EF6D1EEE003
1.02μs,279FB74A7572135E8F9B8EF6D1EEE003
1.02μs,279FB74A7572135E8F9B8EF6D1EEE003
1.02μs,279FB74A7572135E8F9B8EF6D1EEE003
1.024μs,279FB74A7572135E8F9B8EF6D1EEE003
1.024μs,279FB74A7572135E8F9B8EF6D1EEE003
1.024μs,279FB74A7572135E8F9B8EF6D1EEE003
1.024μs,279FB74A7572135E8F9B8EF6D1EEE003
1.024μs,279FB74A7572135E8F9B8EF6D1EEE003
1.028μs,279FB74A7572135E8F9B8EF6D1EEE003
1.028μs,279FB74A7572135E8F9B8EF6D1EEE003
1.028μs,279FB74A7572135E8F9B8EF6D1EEE003
1.028μs,279FB74A7572135E8F9B8EF6D1EEE003
1.028μs,279FB74A7572135E8F9B8EF6D1EEE003
1.032μs,279FB74A7572135E8F9B8EF6D1EEE003
1.032μs,279FB74A7572135E8F9B8EF6D1EEE003
1.032μs,279FB74A7572135E8F9B8EF6D1EEE003
1.032μs,279FB74A7572135E8F9B8EF6D1EEE003
1.032μs,279FB74A7572135E8F9B8EF6D1EEE003
1.0359999990000002μs,279FB74A7572135E8F9B8EF6D1EEE003
1.0359999990000002μs,279FB74A7572135E8F9B8EF6D1EEE003
1.0359999990000002μs,279FB74A7572135E8F9B8EF6D1EEE003
1.0359999990000002μs,279FB74A7572135E8F9B8EF6D1EEE003
1.0359999990000002μs,279FB74A7572135E8F9B8EF6D1EEE003
1.04μs,279FB74A7572135E8F9B8EF6D1EEE003
1.04μs,279FB74A7572135E8F9B8EF6D1EEE003
1.04μs,279FB74A7572135E8F9B8EF6D1EEE003
1.04μs,279FB74A7572135E8F9B8EF6D1EEE003
1.04μs,279FB74A7572135E8F9B8EF6D1EEE003
1.044μs,279FB74A7572135E8F9B8EF6D1EEE003
1.044μs,279FB74A7572135E8F9B8EF6D1EEE003
1.044μs,279FB74A7572135E8F9B8EF6D1EEE003
1.044μs,279FB74A7572135E8F9B8EF6D1EEE003
1.044μs,279FB74A7572135E8F9B8EF6D1EEE003
1.048μs,279FB74A7572135E8F9B8EF6D1EEE003
1.048μs,279FB74A7572135E8F9B8EF6D1EEE003
1.048μs,279FB74A7572135E8F9B8EF6D1EEE003
1.048μs,279FB74A7572135E8F9B8EF6D1EEE003
1.048μs,279FB74A7572135E8F9B8EF6D1EEE003
1.052μs,279FB74A7572135E8F9B8EF6D1EEE003
1.052μs,279FB74A7572135E8F9B8EF6D1EEE003
1.052μs,279FB74A7572135E8F9B8EF6D1EEE003
1.052μs,279FB74A7572135E8F9B8EF6D1EEE003
1.052μs,279FB74A7572135E8F9B8EF6D1EEE003
1.055999999μs,279FB74A7572135E8F9B8EF6D1EEE003
1.055999999μs,279FB74A7572135E8F9B8EF6D1EEE003
1.055999999μs,279FB74A7572135E8F9B8EF6D1EEE003
1.055999999μs,279FB74A7572135E8F9B8EF6D1EEE003
1.055999999μs,279FB74A7572135E8F9B8EF6D1EEE003
1.06μs,279FB74A7572135E8F9B8EF6D1EEE003
1.06μs,279FB74A7572135E8F9B8EF6D1EEE003
1.06μs,A54BBF447FB0F80EE2F5998F3F223BB8
1.06μs,279FB74A7572135E8F9B8EF6D1EEE003
1.06μs,279FB74A7572135E8F9B8EF6D1EEE003
1.064μs,279FB74A7572135E8F9B8EF6D1EEE003
1.064μs,279FB74A7572135E8F9B8EF6D1EEE003
1.064μs,A54BBF447FB0F80EE2F5998F3F223BB8
1.064μs,279FB74A7572135E8F9B8EF6D1EEE003
1.064μs,279FB74A7572135E8F9B8EF6D1EEE003
1.068μs,279FB74A7572135E8F9B8EF6D1EEE003
1.068μs,279FB74A7572135E8F9B8EF6D1EEE003
1.068μs,279FB74A7572135E8F9B8EF6D1EEE003
1.068μs,279FB74A7572135E8F9B8EF6D1EEE003
1.068μs,279FB74A7572135E8F9B8EF6D1EEE003
1.072μs,279FB74A7572135E8F9B8EF6D1EEE003
1.072μs,279FB74A7572135E8F9B8EF6D1EEE003
1.072μs,279FB74A7572135E8F9B8EF6D1EEE003
1.072μs,279FB74A7572135E8F9B8EF6D1EEE003
1.072μs,279FB74A7572135E8F9B8EF6D1EEE003
1.076μs,279FB74A7572135E8F9B8EF6D1EEE003
1.076μs,279FB74A7572135E8F9B8EF6D1EEE003
1.076μs,279FB74A7572135E8F9B8EF6D1EEE003
1.076μs,279FB74A7572135E8F9B8EF6D1EEE003
1.076μs,279FB74A7572135E8F9B8EF6D1EEE003
1.08μs,279FB74A7572135E8F9B8EF6D1EEE003
1.08μs,279FB74A7572135E8F9B8EF6D1EEE003
1.08μs,279FB74A7572135E8F9B8EF6D1EEE003
1.08μs,279FB74A7572135E8F9B8EF6D1EEE003
1.08μs,279FB74A7572135E8F9B8EF6D1EEE003
1.084μs,279FB74A7572135E8F9B8EF6D1EEE003
1.084μs,279FB74A7572135E8F9B8EF6D1EEE003
1.084μs,279FB74A7572135E8F9B8EF6D1EEE003
1.084μs,279FB74A7572135E8F9B8EF6D1EEE003
1.084μs,279FB74A7572135E8F9B8EF6D1EEE003
1.088μs,279FB74A7572135E8F9B8EF6D1EEE003
1.088μs,279FB74A7572135E8F9B8EF6D1EEE003
1.088μs,A54BBF447FB0F80EE2F5998F3F223BB8
1.088μs,279FB74A7572135E8F9B8EF6D1EEE003
1.088μs,279FB74A7572135E8F9B8EF6D1EEE003
1.092μs,279FB74A7572135E8F9B8EF6D1EEE003
1.092μs,279FB74A7572135E8F9B8EF6D1EEE003
1.092μs,279FB74A7572135E8F9B8EF6D1EEE003
1.092μs,279FB74A7572135E8F9B8EF6D1EEE003
1.092μs,279FB74A7572135E8F9B8EF6D1EEE003
1.096μs,279FB74A7572135E8F9B8EF6D1EEE003
1.096μs,279FB74A7572135E8F9B8EF6D1EEE003
1.096μs,279FB74A7572135E8F9B8EF6D1EEE003
1.096μs,279FB74A7572135E8F9B8EF6D1EEE003
1.096μs,279FB74A7572135E8F9B8EF6D1EEE003
1.1μs,279FB74A7572135E8F9B8EF6D1EEE003
1.1μs,279FB74A7572135E8F9B8EF6D1EEE003
1.1μs,A54BBF447FB0F80EE2F5998F3F223BB8
1.1μs,279FB74A7572135E8F9B8EF6D1EEE003
1.1μs,279FB74A7572135E8F9B8EF6D1EEE003
1.104μs,279FB74A7572135E8F9B8EF6D1EEE003
1.104μs,279FB74A7572135E8F9B8EF6D1EEE003
1.104μs,279FB74A7572135E8F9B8EF6D1EEE003
1.104μs,279FB74A7572135E8F9B8EF6D1EEE003
1.104μs,279FB74A7572135E8F9B8EF6D1EEE003
1.108μs,279FB74A7572135E8F9B8EF6D1EEE003
1.108μs,279FB74A7572135E8F9B8EF6D1EEE003
1.108μs,279FB74A7572135E8F9B8EF6D1EEE003
1.108μs,279FB74A7572135E8F9B8EF6D1EEE003
1.108μs,279FB74A7572135E8F9B8EF6D1EEE003
1.112μs,279FB74A7572135E8F9B8EF6D1EEE003
1.112μs,279FB74A7572135E8F9B8EF6D1EEE003
1.112μs,279FB74A7572135E8F9B8EF6D1EEE003
1.112μs,279FB74A7572135E8F9B8EF6D1EEE003
1.112μs,279FB74A7572135E8F9B8EF6D1EEE003
1.116μs,279FB74A7572135E8F9B8EF6D1EEE003
1.116μs,279FB74A7572135E8F9B8EF6D1EEE003
1.116μs,279FB74A7572135E8F9B8EF6D1EEE003
1.116μs,279FB74A7572135E8F9B8EF6D1EEE003
1.116μs,279FB74A7572135E8F9B8EF6D1EEE003
1.12μs,279FB74A7572135E8F9B8EF6D1EEE003
1.12μs,279FB74A7572135E8F9B8EF6D1EEE003
1.12μs,279FB74A7572135E8F9B8EF6D1EEE003
1.12μs,279FB74A7572135E8F9B8EF6D1EEE003
1.12μs,279FB74A7572135E8F9B8EF6D1EEE003
1.124μs,279FB74A7572135E8F9B8EF6D1EEE003
1.124μs,279FB74A7572135E8F9B8EF6D1EEE003
1.124μs,279FB74A7572135E8F9B8EF6D1EEE003
1.124μs,279FB74A7572135E8F9B8EF6D1EEE003
1.124μs,279FB74A7572135E8F9B8EF6D1EEE003
1.1280000000000001μs,279FB74A7572135E8F9B8EF6D1EEE003
1.1280000000000001μs,279FB74A7572135E8F9B8EF6D1EEE003
1.1280000000000001μs,279FB74A7572135E8F9B8EF6D1EEE003
1.1280000000000001μs,279FB74A7572135E8F9B8EF6D1EEE003
1.1280000000000001μs,279FB74A7572135E8F9B8EF6D1EEE003
1.1320000000000001μs,279FB74A7572135E8F9B8EF6D1EEE003
1.1320000000000001μs,279FB74A7572135E8F9B8EF6D1EEE003
1.1320000000000001μs,279FB74A7572135E8F9B8EF6D1EEE003
1.1320000000000001μs,279FB74A7572135E8F9B8EF6D1EEE003
1.1320000000000001μs,279FB74A7572135E8F9B8EF6D1EEE003
1.1360000000000001μs,279FB74A7572135E8F9B8EF6D1EEE003
1.1360000000000001μs,279FB74A7572135E8F9B8EF6D1EEE003
1.1360000000000001μs,279FB74A7572135E8F9B8EF6D1EEE003
1.1360000000000001μs,279FB74A7572135E8F9B8EF6D1EEE003
1.1360000000000001μs,279FB74A7572135E8F9B8EF6D1EEE003
1.1400000000000001μs,279FB74A7572135E8F9B8EF6D1EEE003
1.1400000000000001μs,279FB74A7572135E8F9B8EF6D1EEE003
1.1400000000000001μs,279FB74A7572135E8F9B8EF6D1EEE003
1.1400000000000001μs,279FB74A7572135E8F9B8EF6D1EEE003
1.1400000000000001μs,279FB74A7572135E8F9B8EF6D1EEE003
1.1440000000000001μs,279FB74A7572135E8F9B8EF6D1EEE003
1.1440000000000001μs,279FB74A7572135E8F9B8EF6D1EEE003
1.1440000000000001μs,279FB74A7572135E8F9B8EF6D1EEE003
1.1440000000000001μs,279FB74A7572135E8F9B8EF6D1EEE003
1.1440000000000001μs,279FB74A7572135E8F9B8EF6D1EEE003
1.1480000000000001μs,279FB74A7572135E8F9B8EF6D1EEE003
1.1480000000000001μs,279FB74A7572135E8F9B8EF6D1EEE003
1.1480000000000001μs,279FB74A7572135E8F9B8EF6D1EEE003
1.1480000000000001μs,279FB74A7572135E8F9B8EF6D1EEE003
1.1480000000000001μs,279FB74A7572135E8F9B8EF6D1EEE003
1.1520000000000001μs,279FB74A7572135E8F9B8EF6D1EEE003
1.1520000000000001μs,279FB74A7572135E8F9B8EF6D1EEE003
1.1520000000000001μs,279FB74A7572135E8F9B8EF6D1EEE003
1.1520000000000001μs,279FB74A7572135E8F9B8EF6D1EEE003
1.1520000000000001μs,279FB74A7572135E8F9B8EF6D1EEE003
1.1560000000000001μs,279FB74A7572135E8F9B8EF6D1EEE003
1.1560000000000001μs,279FB74A7572135E8F9B8EF6D1EEE003
1.1560000000000001μs,279FB74A7572135E8F9B8EF6D1EEE003
1.1560000000000001μs,279FB74A7572135E8F9B8EF6D1EEE003
1.1560000000000001μs,279FB74A7572135E8F9B8EF6D1EEE003
1.1600000000000001μs,279FB74A7572135E8F9B8EF6D1EEE003
1.1600000000000001μs,279FB74A7572135E8F9B8EF6D1EEE003
1.1600000000000001μs,279FB74A7572135E8F9B8EF6D1EEE003
1.1600000000000001μs,279FB74A7572135E8F9B8EF6D1EEE003
1.1600000000000001μs,279FB74A7572135E8F9B8EF6D1EEE003
1.1640000000000001μs,279FB74A7572135E8F9B8EF6D1EEE003
1.1640000000000001μs,279FB74A7572135E8F9B8EF6D1EEE003
1.1640000000000001μs,279FB74A7572135E8F9B8EF6D1EEE003
1.1640000000000001μs,279FB74A7572135E8F9B8EF6D1EEE003
1.1640000000000001μs,279FB74A7572135E8F9B8EF6D1EEE003
1.1680000000000001μs,279FB74A7572135E8F9B8EF6D1EEE003
1.1680000000000001μs,279FB74A7572135E8F9B8EF6D1EEE003
1.1680000000000001μs,279FB74A7572135E8F9B8EF6D1EEE003
1.1680000000000001μs,279FB74A7572135E8F9B8EF6D1EEE003
1.1680000000000001μs,279FB74A7572135E8F9B8EF6D1EEE003
1.1720000000000002μs,279FB74A7572135E8F9B8EF6D1EEE003
1.1720000000000002μs,279FB74A7572135E8F9B8EF6D1EEE003
1.1720000000000002μs,279FB74A7572135E8F9B8EF6D1EEE003
1.1720000000000002μs,A54BBF447FB0F80EE2F5998F3F223BB8

0x200011f8 04030201 08070605 0c0b0a55 100f0e0d ........U.......
0x20001208 00800000 77665544 bbaa9988 ffeeddcc ....DUfw........


1.1720000000000002μs,279FB74A7572135E8F9B8EF6D1EEE003
1.1760000000000002μs,279FB74A7572135E8F9B8EF6D1EEE003
1.1760000000000002μs,279FB74A7572135E8F9B8EF6D1EEE003
1.1760000000000002μs,279FB74A7572135E8F9B8EF6D1EEE003
1.1760000000000002μs,279FB74A7572135E8F9B8EF6D1EEE003
1.1760000000000002μs,279FB74A7572135E8F9B8EF6D1EEE003
1.1800000000000002μs,279FB74A7572135E8F9B8EF6D1EEE003
1.1800000000000002μs,279FB74A7572135E8F9B8EF6D1EEE003
1.1800000000000002μs,A54BBF447FB0F80EE2F5998F3F223BB8
1.1800000000000002μs,279FB74A7572135E8F9B8EF6D1EEE003
1.1800000000000002μs,A54BBF447FB0F80EE2F5998F3F223BB8
1.1840000000000002μs,279FB74A7572135E8F9B8EF6D1EEE003
1.1840000000000002μs,279FB74A7572135E8F9B8EF6D1EEE003
1.1840000000000002μs,279FB74A7572135E8F9B8EF6D1EEE003
1.1840000000000002μs,279FB74A7572135E8F9B8EF6D1EEE003
1.1840000000000002μs,279FB74A7572135E8F9B8EF6D1EEE003
1.1880000000000002μs,279FB74A7572135E8F9B8EF6D1EEE003
1.1880000000000002μs,279FB74A7572135E8F9B8EF6D1EEE003
1.1880000000000002μs,279FB74A7572135E8F9B8EF6D1EEE003
1.1880000000000002μs,279FB74A7572135E8F9B8EF6D1EEE003
1.1880000000000002μs,279FB74A7572135E8F9B8EF6D1EEE003
1.1920000000000002μs,279FB74A7572135E8F9B8EF6D1EEE003
1.1920000000000002μs,279FB74A7572135E8F9B8EF6D1EEE003
1.1920000000000002μs,279FB74A7572135E8F9B8EF6D1EEE003
1.1920000000000002μs,279FB74A7572135E8F9B8EF6D1EEE003
1.1920000000000002μs,279FB74A7572135E8F9B8EF6D1EEE003
1.1960000000000002μs,279FB74A7572135E8F9B8EF6D1EEE003
1.1960000000000002μs,279FB74A7572135E8F9B8EF6D1EEE003
1.1960000000000002μs,279FB74A7572135E8F9B8EF6D1EEE003
1.1960000000000002μs,279FB74A7572135E8F9B8EF6D1EEE003
1.1960000000000002μs,279FB74A7572135E8F9B8EF6D1EEE003
1.2000000000000002μs,279FB74A7572135E8F9B8EF6D1EEE003
1.2000000000000002μs,279FB74A7572135E8F9B8EF6D1EEE003
1.2000000000000002μs,279FB74A7572135E8F9B8EF6D1EEE003
1.2000000000000002μs,279FB74A7572135E8F9B8EF6D1EEE003
1.2000000000000002μs,279FB74A7572135E8F9B8EF6D1EEE003
